/home/karki/Documents/restful/src/main/java/restful/dao/BrandDao.java
/home/karki/Documents/restful/src/main/java/restful/dao/AbstractDao.java
/home/karki/Documents/restful/src/main/java/restful/model/Product.java
/home/karki/Documents/restful/src/main/java/restful/model/Brand.java
/home/karki/Documents/restful/src/main/java/restful/dao/ProductDao.java
/home/karki/Documents/restful/src/main/java/restful/deserializer/ProductDeserializer.java
/home/karki/Documents/restful/src/main/java/restful/config/ApplicationConfig.java
/home/karki/Documents/restful/src/main/java/restful/util/HibernateUtil.java
/home/karki/Documents/restful/src/main/java/restful/service/ProductService.java
/home/karki/Documents/restful/src/main/java/restful/serializer/ProductSerializer.java
